…
    ## ── Conflicts ────────────────────────────────────────── tidyverse_conflicts() ──
    ## x dplyr::filter() masks stats::filter()
    ## x dplyr::lag()    masks stats::lag()

``` r
#
chronPain <- read_csv("~/Dropbox/GitHub/ProbEstad/DataSets/ch08_all/EXA_C08_S04_01.csv", col_names = TRUE, show_col_types = FALSE)

chronPain_long <- chronPain %>%
  pivot_longer(cols = Baseline:Month6, names_to = "Time", values_to = "APhFq")

chronPain_long
```

    ## # A tibble: 72 × 3
    ##    Subject Time     APhFq
    ##      <dbl> <chr>    <dbl>
    ##  1       1 Baseline    80
    ##  2       1 Month1      60
    ##  3       1 Month3      95
    ##  4       1 Month6     100
    ##  5       2 Baseline    95
    ##  6       2 Month1      90
    ##  7       2 Month3      95
    ##  8       2 Month6      95
    ##  9       3 Baseline    65
    ## 10       3 Month1      55
    ## # … with 62 more rows
…
